<?xml version="1.0" encoding="UTF-8"?>
<svg width="99px" height="102px" viewBox="0 0 99 102" version="1.1" xmlns="http://www.w3.org/2000/svg" xmlns:xlink="http://www.w3.org/1999/xlink">
    <!-- Generator: Sketch 48.2 (47327) - http://www.bohemiancoding.com/sketch -->
    <title>search</title>
    <desc>Created with Sketch.</desc>
    <defs></defs>
    <g id="Welcome" stroke="none" stroke-width="1" fill="none" fill-rule="evenodd" opacity="0.189085145">
        <g id="search" transform="translate(-1.000000, 0.000000)" fill="#000000" fill-rule="nonzero">
            <path d="M99.4307692,98.6019231 L70.8557692,68.8846154 C78.1442308,61.575 82.6596154,51.4980769 82.6596154,40.3846154 C82.6596154,18.1153846 64.5442308,0 42.275,0 C20.0057692,0 1.89038462,18.1153846 1.89038462,40.3846154 C1.89038462,62.6538462 20.0057692,80.7692308 42.275,80.7692308 C52.05,80.7692308 61.0211538,77.275 68.0134615,71.4769231 L96.6576923,101.267308 C97.0346154,101.661538 97.5384615,101.857692 98.0442308,101.857692 C98.525,101.857692 99.0038462,101.678846 99.3769231,101.321154 C100.142308,100.584615 100.165385,99.3673077 99.4307692,98.6019231 Z M42.275,76.9230769 C22.1269231,76.9230769 5.73653846,60.5326923 5.73653846,40.3846154 C5.73653846,20.2365385 22.1269231,3.84615385 42.275,3.84615385 C62.4230769,3.84615385 78.8134615,20.2365385 78.8134615,40.3846154 C78.8134615,60.5326923 62.4211538,76.9230769 42.275,76.9230769 Z" id="Shape"></path>
        </g>
    </g>
</svg>